{
    "idcliente": 1594575003993,
    "email": "lc@email",
    "password": "$2a$10$SC6UTQNwqJ6JdDAqr3zA.u54Evw2JZVwK3NEEOh.l2RflyzO83DGG",
    "nombre": "Luisito",
    "apellido": "Comunica",
    "cuentas": [
        {
            "idcuenta": "100000",
            "tipo": "debito",
            "descripcion": "Mi nomina",
            "saldo": 100.00
        }
    ],
    "movimientos": [
        {
            "tipo": {
                "nombre": "envio",
                "efecto": "cargo",
                "descripcion": "Transferencias realizadas"
            },
            "origen": "700700",
            "destino": "800800",
            "importe": "1000",
            "fecha": 1593547885279,
            "idmovimiento": "7007008008001593547885279"
        }
    ]
}