[
    {
        "nombre": "nomina",
        "efecto": "abono",
        "descripcion": "Domiciliación de nómina o pensión"
    },
    {
        "nombre": "recibo",
        "efecto": "abono",
        "descripcion": "Transferencias recibidas"
    },
    {
        "nombre": "intereses",
        "efecto": "abono",
        "descripcion": "Liquidación de intereses"
    },
    {
        "nombre": "deposito",
        "efecto": "abono",
        "descripcion": "Ingreso de efectivo"
    },
    {
        "nombre": "domiciliacion",
        "efecto": "cargo",
        "descripcion": "Domiciliación de recibos"
    },
    {
        "nombre": "envio",
        "efecto": "cargo",
        "descripcion": "Transferencias realizadas"
    },
    {
        "nombre": "adeudo",
        "efecto": "cargo",
        "descripcion": "Pago de adeudos"
    },
    {
        "nombre": "comision",
        "efecto": "cargo",
        "descripcion": "Pago de comisiones"
    },
    {
        "nombre": "retiro",
        "efecto": "cargo",
        "descripcion": "Retirada de efectivo"
    }
]